,0,1,2,3,4,5,6,7
out,0.63,0.63,0.63,0.63,0.63,0.63,0.63,0.63
single,0.22,0.22,0.22,0.22,0.22,0.22,0.22,0.22
double,0.05,0.05,0.05,0.05,0.05,0.05,0.05,0.05
triple,0,0,0,0,0,0,0,0
homerun,0.1,0.1,0.1,0.1,0.1,0.1,0.1,0.1
sacrifice,0,0,0,0,0,0,0,0