,0,1,2,3,4,5,6,7
out,0.72,0.72,0.72,0.72,0.72,0.72,0.72,0.72
single,0.2,0.2,0.2,0.2,0.2,0.2,0.2,0.2
double,0.03,0.03,0.03,0.03,0.03,0.03,0.03,0.03
triple,0,0,0,0,0,0,0,0
homerun,0.05,0.05,0.05,0.05,0.05,0.05,0.05,0.05
sacrifice,0,0,0,0,0,0,0,0