,0,1,2,3,4,5,6,7
out,0.74,0.59,0.58,0.58,0.56,0.56,0.55,0.54
single,0.25,0.15,0.16,0.16,0.18,0.18,0.19,0.2
double,0.01,0.01,0.01,0.01,0.01,0.01,0.01,0.01
triple,0,0,0,0,0,0,0,0
homerun,0,0,0,0,0,0,0,0
sacrifice,0,0.25,0.25,0.25,0.25,0.25,0.25,0.25